<?xml version="1.0" encoding="utf-8"?>
<!-- Generator: Adobe Illustrator 19.1.0, SVG Export Plug-In . SVG Version: 6.00 Build 0)  -->
<svg version="1.1" id="Layer_1" xmlns="http://www.w3.org/2000/svg" xmlns:xlink="http://www.w3.org/1999/xlink" x="0px" y="0px"
	 viewBox="0 0 223 223.6" style="enable-background:new 0 0 223 223.6;" xml:space="preserve">
<style type="text/css">
	.st0{fill:#EF4152;}
</style>
<g>
	<g>
		<path class="st0" d="M111.1,208.2c-52.7,0-95.5-42.8-95.5-95.5c0-52.7,42.8-95.5,95.5-95.5c52.7,0,95.5,42.8,95.5,95.5
			C206.6,165.4,163.9,208.2,111.1,208.2 M111.1,2.7C50.4,2.7,1.2,52,1.2,112.7c0,60.7,49.2,109.9,109.9,109.9
			c60.7,0,109.9-49.2,109.9-109.9C221,52,171.8,2.7,111.1,2.7"/>
		<path class="st0" d="M168.4,167.9c0.6,0,1.1-0.5,1.1-1.1v-10.5c0-0.6-0.5-1.1-1.1-1.1H53.9c-0.6,0-1.1,0.5-1.1,1.1v10.5
			c0,0.6,0.5,1.1,1.1,1.1H168.4z"/>
		<path class="st0" d="M156.6,57.4l-45.5,45.5L65.6,57.4v83.9c0,0.6,0.5,1.1,1.1,1.1h10.5c0.7,0,1.2-0.5,1.2-1.1l-0.1-53.2
			l32.8,32.8l32.7-32.8l0,53.2c0,0.6,0.5,1.1,1.1,1.1h10.5c0.6,0,1.1-0.5,1.1-1.1V57.4z"/>
	</g>
	<g>
		<path class="st0" d="M754.2,146.2c-18.5,0-33.5-15-33.5-33.5c0-18.5,15-33.5,33.5-33.5c18.5,0,33.5,15,33.5,33.5
			C787.7,131.2,772.7,146.2,754.2,146.2 M754.2,55.6c-12.5,0-24.1,4-33.5,10.9v-3.3c0-1.5-1.2-2.6-2.6-2.6h-18.3
			c-1.5,0-2.6,1.2-2.6,2.6V202c0,1.4,1.2,2.6,2.6,2.6h18.3c1.5,0,2.6-1.2,2.6-2.6v-43.2c9.4,6.8,21,10.9,33.5,10.9
			c31.5,0,57.1-25.6,57.1-57.1C811.3,81.1,785.7,55.6,754.2,55.6 M596.2,103.6c3.9-14,16.8-24.3,32.1-24.3
			c15.3,0,28.2,10.3,32.1,24.3H596.2z M628.3,55.6c-31.5,0-57.1,25.5-57.1,57.1c0,31.5,25.6,57.1,57.1,57.1
			c17.5,0,33.2-7.9,43.7-20.4l0,0c0.9-1.1,0.8-2.8-0.3-3.7l-14.2-11.9c-1.1-0.9-2.8-0.8-3.7,0.3c-6.1,7.3-15.3,11.9-25.5,11.9
			c-14.3,0-26.5-9-31.3-21.7h84.9c1.3,0,2.3-0.9,2.6-2.1c0.5-3.2,0.8-6.4,0.8-9.7C685.3,82.7,659.8,55.6,628.3,55.6 M470.2,103.6
			c3.9-14,16.8-24.3,32.1-24.3c15.3,0,28.2,10.3,32.1,24.3H470.2z M502.3,55.6c-31.5,0-57.1,25.5-57.1,57.1
			c0,31.5,25.6,57.1,57.1,57.1c17.5,0,33.2-7.9,43.7-20.4l0,0c0.9-1.1,0.8-2.8-0.3-3.7l-14.2-11.9c-1.1-0.9-2.8-0.8-3.7,0.3
			c-6.1,7.3-15.3,11.9-25.5,11.9c-14.3,0-26.5-9-31.3-21.7H556c1.3,0,2.3-0.9,2.6-2.1c0.5-3.2,0.8-6.4,0.8-9.7
			C559.4,82.7,533.9,55.6,502.3,55.6 M387.2,55.6c-13.7,0-25.9,6-34.4,15.4c-8.5-9.5-20.7-15.4-34.5-15.4c-8.4,0-16.3,2.3-23.1,6.2
			c-0.5-0.8-1.3-1.3-2.2-1.3h-18.3c-1.5,0-2.6,1.2-2.6,2.6v104c0,1.4,1.2,2.6,2.6,2.6h18.3c1.5,0,2.6-1.2,2.6-2.6v-65.3
			c0-12.5,10.1-22.7,22.6-22.7c12.5,0,22.7,10.1,22.7,22.7v65.3c0,1.4,1.2,2.6,2.6,2.6H362c1.4,0,2.6-1.2,2.6-2.6v-65.3
			c0-12.5,10.1-22.7,22.6-22.7c12.5,0,22.7,10.1,22.7,22.7v65.3c0,1.4,1.2,2.6,2.6,2.6h18.3c1.4,0,2.6-1.2,2.6-2.6v-65.3
			C433.4,76.3,412.8,55.6,387.2,55.6"/>
	</g>
</g>
</svg>
